<?xml version="1.0" encoding="UTF-8"?>
<svg width="77px" height="77px" viewBox="0 0 77 77" version="1.1" xmlns="http://www.w3.org/2000/svg" xmlns:xlink="http://www.w3.org/1999/xlink">
    <!-- Generator: Sketch 54.1 (76490) - https://sketchapp.com -->
    <title>SBB_165_dart</title>
    <desc>Created with Sketch.</desc>
    <g id="Symbols" stroke="none" stroke-width="1" fill="none" fill-rule="evenodd">
        <g id="Icon-Teaser" transform="translate(-92.000000, -41.000000)" fill-rule="nonzero">
            <g id="SBB_165_dart" transform="translate(92.000000, 41.000000)">
                <path d="M55.56,29.928 C58.4585127,34.4205332 60.0000943,39.6535778 60,45 C60,60.44 47.44,73 32,73 C16.56,73 4,60.44 4,45 C4,29.56 16.56,17 32,17 C37.552,17 42.72,18.644 47.072,21.44 L49.972,18.544 C44.6770219,14.9268818 38.4125117,12.9944066 32,13 C14.356,13 0,27.36 0,45 C0,62.64 14.356,77 32,77 C49.644,77 64,62.64 64,45 C64.0055934,38.5874883 62.0731182,32.3229781 58.456,27.028 L55.56,29.928 L55.56,29.928 Z" id="Path" fill="#FFFFFF"></path>
                <path d="M68,9 L68,0.172 L56,12.172 L56,18.172 L36.04,38.132 C34.819741,37.3979792 33.4239983,37.0068949 32,37 C27.588,37 24,40.588 24,45 C24,49.408 27.588,53 32,53 C36.412,53 40,49.408 40,45 C40,43.52 39.568,42.152 38.868,40.96 L58.828,21 L64.828,21 L76.828,9 L68,9 Z M32,49 C29.7897564,48.9988954 27.9988954,47.2062436 27.9999995,44.9959995 C28.0011046,42.7857564 29.7937564,40.9948954 32.004,40.996 C34.213139,40.9971046 36.0031046,42.788861 36.002,44.998 C36.0008954,47.207139 34.209139,48.9971046 31.9999995,48.9959995 L32,49 Z M63.172,17 L60,17 L60,13.828 L64,9.828 L64,13 L67.172,13 L63.172,17 Z" id="Shape" fill="#EE4266"></path>
                <path d="M32,29 C34.216,29 36.324,29.456 38.244,30.272 L41.18,27.336 C38.3549515,25.8237975 35.2042424,25.0220484 32,25 C20.972,25 12,33.972 12,45 C12,56.028 20.972,65 32,65 C43.028,65 52,56.028 52,45 C52,41.676 51.108,38.584 49.664,35.82 L46.728,38.756 C47.544,40.676 48,42.788 48,45 C48,53.824 40.824,61 32,61 C23.176,61 16,53.824 16,45 C16,36.176 23.176,29 32,29 Z" id="Path" fill="#FFFFFF"></path>
            </g>
        </g>
    </g>
</svg>