<?xml version="1.0" encoding="utf-8"?>
<!-- Generator: Adobe Illustrator 23.0.3, SVG Export Plug-In . SVG Version: 6.00 Build 0)  -->
<svg version="1.1" id="Ebene_1" xmlns="http://www.w3.org/2000/svg" width="792" height="424" xmlns:xlink="http://www.w3.org/1999/xlink" x="0px" y="0px"
	 viewBox="0 0 396.85 212.6" style="enable-background:new 0 0 396.85 212.6;" xml:space="preserve">
<style type="text/css">
	.st0{fill:#FEF076;stroke:#FFFFFF;stroke-width:3;stroke-miterlimit:10;}
	.st1{fill:none;stroke:#FFFFFF;stroke-width:4;}
	.st2{fill:#FEF076;stroke:#FEF076;stroke-width:3;stroke-miterlimit:10;}
	.st3{fill:#FEF076;stroke:#FFFFFF;stroke-miterlimit:10;}
	.st4{fill:#FFFFFF;}
</style>
<g>
	<g>
		<g>
			<g>
				<g>
					<path class="st0" d="M173.74,122.69c-7.16,5.91-14.5,9.93-23.25,12.71c-2.47,0.78-4.96,1.4-7.47,1.88v29.04
						c4.41-3.05,8.54-6.48,12.33-10.27c6.72-6.73,11.99-14.05,16.29-22.64c1.96-3.92,5.41-12.37,5.41-13.3
						C177.05,120.05,175.57,121.18,173.74,122.69z"/>
					<path class="st0" d="M66.98,125.89c0-6.18,3.84-11.45,9.26-13.59c-19.98-25.85-17.9-63.23,6.46-86.63
						c1.79-1.72,4.17-3.81,5.3-4.67c5.82-4.43,13.47-8.52,20.08-10.75c2.24-0.72,3.34-1.24,2.93-1.34
						c-5.92-1.72-20.39-2.71-28.28-1.96C45.67,10.52,14.81,35.63,4.68,70.47C2.27,78.72,1.27,85.87,1.3,94.9
						c0,13.43,2.86,25.53,8.85,37.62c7.23,14.6,17.19,25.94,30.83,35.01c4.48,2.99,13.33,7.46,18.39,9.31
						c2.49,0.91,5.03,1.7,7.61,2.39V125.89z"/>
					<circle class="st0" cx="87.45" cy="166.83" r="2.92"/>
					<circle class="st0" cx="122.55" cy="166.83" r="2.92"/>
				</g>
				<path class="st1" d="M128.2,181.69l11.7,23.39 M69.72,205.08l11.7-23.39 M139.9,193.38H69.72 M145.75,205.08H63.87 M116.5,123.2
					H93.11 M142.82,152.45H66.79 M128.2,93.96H81.41 M142.82,181.69H66.79v-55.56c0-8.07,6.54-14.62,14.62-14.62h46.79
					c8.08,0,14.62,6.55,14.62,14.62V181.69z M93.11,93.96l11.7,17.55 M116.5,93.96l-11.7,17.55 M125.28,167.07
					c0-1.61-1.31-2.92-2.92-2.92c-1.61,0-2.92,1.32-2.92,2.92c0,1.61,1.31,2.92,2.92,2.92
					C123.97,169.99,125.28,168.68,125.28,167.07z M90.19,167.07c0-1.61-1.31-2.92-2.92-2.92c-1.61,0-2.92,1.32-2.92,2.92
					c0,1.61,1.31,2.92,2.92,2.92C88.88,169.99,90.19,168.68,90.19,167.07z"/>
			</g>
			<circle class="st2" cx="87.26" cy="167.07" r="2.92"/>
			<circle class="st2" cx="122.35" cy="167.07" r="2.92"/>
		</g>
		<polygon class="st3" points="110.4,55.27 104.54,51.79 98.34,54.64 99.85,47.99 95.22,42.98 102.01,42.36 105.35,36.41 
			108.04,42.68 114.72,44.01 109.6,48.5 		"/>
		<polygon class="st3" points="143.42,32.99 138.86,36.09 138.84,41.61 134.48,38.24 129.23,39.92 131.09,34.73 127.86,30.25 
			133.37,30.42 136.63,25.97 138.18,31.26 		"/>
		<polygon class="st3" points="143.02,78.95 134.72,75.61 127.27,80.54 127.89,71.62 120.89,66.05 129.57,63.88 132.7,55.51 
			137.44,63.09 146.38,63.48 140.63,70.34 		"/>
	</g>
	<g>
		<path class="st4" d="M189.22,36.99h-10.55v-2.4h23.7v2.4h-10.55v32.6h-2.6V36.99z"/>
		<path class="st4" d="M216.02,46.79l-1.1,2.5c0,0-0.95-0.55-3.05-0.55c-3.95,0-5.8,4.4-5.8,4.4v16.45h-2.6v-22.8h2.35v3.7
			c0,0,1.95-4.3,6.65-4.3C214.62,46.19,216.02,46.79,216.02,46.79z"/>
		<path class="st4" d="M239.57,46.79v22.8h-2.35v-4.2c0,0-2.6,4.8-8.55,4.8c-6.3,0-11.25-4.9-11.25-12c0-7.1,4.95-12,11.25-12
			c5.95,0,8.55,4.8,8.55,4.8v-4.2H239.57z M236.97,54.04c0,0-2.45-5.3-8.25-5.3c-5.1,0-8.6,4.15-8.6,9.45s3.5,9.45,8.6,9.45
			c5.8,0,8.25-5.3,8.25-5.3V54.04z"/>
		<path class="st4" d="M248.77,37.39c1.1,0,2,0.9,2,2s-0.9,2-2,2c-1.1,0-2-0.9-2-2S247.67,37.39,248.77,37.39z M247.47,46.79h2.6
			v22.8h-2.6V46.79z"/>
		<path class="st4" d="M276.67,55.04v14.55h-2.6V55.44c0-4.7-2.75-6.7-6.45-6.7c-5.05,0-7.05,5.1-7.05,5.1v15.75h-2.6v-22.8h2.35
			v4.15c0,0,2.2-4.75,7.8-4.75C272.37,46.19,276.67,48.84,276.67,55.04z"/>
		<path class="st4" d="M285.87,37.39c1.1,0,2,0.9,2,2s-0.9,2-2,2c-1.1,0-2-0.9-2-2S284.77,37.39,285.87,37.39z M284.57,46.79h2.6
			v22.8h-2.6V46.79z"/>
		<path class="st4" d="M292.87,46.79h4.95v-7.35h2.6v7.35h7.75v2.4h-7.75v13.75c0,2.55,0.9,4.7,4,4.7c1.8,0,3.4-1.05,3.4-1.05
			l1,2.25c0,0-2.2,1.35-4.5,1.35c-4.45,0-6.5-3-6.5-6.75V49.19h-4.95V46.79z"/>
		<path class="st4" d="M334.42,58.19c0,0.45,0,0.5-0.05,1.05h-19.65c0.2,3.45,3.05,8.4,9.1,8.4c3.5,0,6.25-1.95,7.8-3.9l1.75,1.8
			c-2.2,2.65-5.8,4.65-9.55,4.65c-6.8,0-11.7-5.5-11.7-12c0-6.45,4.45-12,11.25-12C329.42,46.19,334.42,51.19,334.42,58.19z
			 M331.72,56.84c-0.1-2.6-2.35-8.1-8.35-8.1c-6.35,0-8.45,5.6-8.55,8.1H331.72z"/>
		<path class="st4" d="M341.52,66.19c1.1,0,2,0.9,2,2s-0.9,2-2,2c-1.1,0-2-0.9-2-2S340.42,66.19,341.52,66.19z"/>
		<path class="st4" d="M370.92,58.19c0,0.45,0,0.5-0.05,1.05h-19.65c0.2,3.45,3.05,8.4,9.1,8.4c3.5,0,6.25-1.95,7.8-3.9l1.75,1.8
			c-2.2,2.65-5.8,4.65-9.55,4.65c-6.8,0-11.7-5.5-11.7-12c0-6.45,4.45-12,11.25-12C365.92,46.19,370.92,51.19,370.92,58.19z
			 M368.22,56.84c-0.1-2.6-2.35-8.1-8.35-8.1c-6.35,0-8.45,5.6-8.55,8.1H368.22z"/>
		<path class="st4" d="M376.32,61.34V46.79h2.6v14.15c0,4.7,2.65,6.7,6.45,6.7c5.05,0,7.05-5,7.05-5V46.79h2.6v22.8h-2.35v-4.05
			c0,0-2.2,4.65-7.8,4.65C380.52,70.19,376.32,67.54,376.32,61.34z"/>
	</g>
</g>
</svg>
